[
  {
    "name": "Спинінг",
    "model": "Abu Garcia Veritas",
    "price": 3999.99,
    "image": "https://slovi.com.ua/image/cache/catalog/product/6336-1000x1000.jpg",
    "article": "1001",
    "color": "Чорний/зелений"
  },
  {
    "name": "Катушка ",
    "model": "Shimano Stradic CI4+",
    "price": 5599.99,
    "image": "https://fishman.com.ua/content/images/40/stradic-ci4-2500ra-51672575089609_small11.jpg",
    "article": "1002",
    "color": "Чорний/сірий"
  },
  {
    "name": "Гачки ",
    "model": "Owner",
    "price": 39.99,
    "image": "https://veliki.com.ua/files/2021/08_02/17_15/u_files_store_0_4439663.jpg",
    "article": "1003",
    "color": "Чорний/срібний"
  },
  {
    "name": "Воблер ",
    "model": "Salmo Hornet",
    "price": 79.99,
    "image": "https://fish-mir.com/image/cache/data/Primanki/Voblery/-215-202x202.jpg",
    "article": "1004",
    "color": "Золотистий/чорний"
  },
  {
    "name": "Кепка ",
    "model": "Shimano",
    "price": 299.99,
    "image": "https://voblerok.ua/content/images/39/499x397l80mc0/kepka-shimano-nexus-limited-pro-gore-tex-free-ca-110k-81038891979389.jpg",
    "article": "1005",
    "color": "Синій"
  },
  {
    "name": "Катушка ",
    "model": "Daiwa Ballistic",
    "price": 6999.99,
    "image": "https://salmon.com.ua/upload/iblock/62b/62b6573e872773436f7293c1dfa06198.webp?1582392719",
    "article": "1006",
    "color": "Чорний/золотистий"
  },
  {
    "name": "Приманка ",
    "model": "Zoom Super Fluke",
    "price": 59.99,
    "image": "https://fish-out.com.ua/content/images/8/1024x683l80mc20/keitech_silikon_shad_impact_2_ea03_grape-63405578783184.jpg",
    "article": "1007",
    "color": "Зелений/білий"
  },
  {
    "name": "Вудилище ",
    "model": "G.Loomis",
    "price": 8999.99,
    "image": "https://content.rozetka.com.ua/goods/images/big/23625593.jpg",
    "article": "1008",
    "color": "Сірий/синій"
  },
  {
    "name": "Катушка ",
    "model": "Abu Garcia Revo SX",
    "price": 5299.99,
    "image": "https://fishershop.com.ua/published/publicdata/STORE/attachments/SC/products_pictures/3838014180.jpg",
    "article": "1009",
    "color": "Чорний/червоний"
  },
  {
    "name": "Гачки ",
    "model": "Mustad",
    "price": 49.99,
    "image": "https://ae04.alicdn.com/kf/Hb5b0e9ee013d439cbe42835b3b35ed9ar.jpg_480x480.jpg",
    "article": "1010",
    "color": "Чорний/білий"
  }
]
